ContestJudge/simulation/qsim/ContestJudge.msim.vcd
$comment
	File created using the following command:
		vcd file ContestJudge.msim.vcd -direction
$end
$date
	Thu Mar 17 13:07:14 2022
$end
$version
	ModelSim Version 10.5b
$end
$timescale
	1ps
$end

$scope module contestjudge_vhd_vec_tst $end
$var wire 1 ! CL $end
$var wire 1 " clock $end
$var wire 1 # CR $end
$var wire 1 $ resetn $end
$var wire 1 % WL $end
$var wire 1 & WR $end

$scope module i1 $end
$var wire 1 ' gnd $end
$var wire 1 ( vcc $end
$var wire 1 ) unknown $end
$var wire 1 * devoe $end
$var wire 1 + devclrn $end
$var wire 1 , devpor $end
$var wire 1 - ww_devoe $end
$var wire 1 . ww_devclrn $end
$var wire 1 / ww_devpor $end
$var wire 1 0 ww_resetn $end
$var wire 1 1 ww_clock $end
$var wire 1 2 ww_CL $end
$var wire 1 3 ww_CR $end
$var wire 1 4 ww_WL $end
$var wire 1 5 ww_WR $end
$var wire 1 6 \WL~output_o\ $end
$var wire 1 7 \WR~output_o\ $end
$var wire 1 8 \clock~input_o\ $end
$var wire 1 9 \CL~input_o\ $end
$var wire 1 : \CR~input_o\ $end
$var wire 1 ; \Selector0~0_combout\ $end
$var wire 1 < \resetn~input_o\ $end
$var wire 1 = \state.idle~q\ $end
$var wire 1 > \Selector1~0_combout\ $end
$var wire 1 ? \state.gameOn~q\ $end
$var wire 1 @ \state.winL~0_combout\ $end
$var wire 1 A \state.winL~q\ $end
$var wire 1 B \state.winR~0_combout\ $end
$var wire 1 C \state.winR~q\ $end
$var wire 1 D \ALT_INV_CR~input_o\ $end
$var wire 1 E \ALT_INV_CL~input_o\ $end
$var wire 1 F \ALT_INV_state.idle~q\ $end
$var wire 1 G \ALT_INV_state.gameOn~q\ $end
$var wire 1 H \ALT_INV_state.winR~q\ $end
$var wire 1 I \ALT_INV_state.winL~q\ $end
$upscope $end
$upscope $end
$enddefinitions $end
#0
$dumpvars
0!
0"
0#
0$
0%
0&
0'
1(
x)
1*
1+
1,
1-
1.
1/
00
01
02
03
04
05
06
07
08
09
0:
0;
0<
0=
0>
0?
0@
0A
0B
0C
1D
1E
1F
1G
1H
1I
$end
#250000
1"
11
18
#500000
0"
01
08
#750000
1"
11
18
#1000000
0"
1$
01
10
1<
08
#1250000
1"
11
18
#1500000
0"
01
08
#1750000
1"
11
18
#2000000
0"
1!
1#
01
12
13
1:
19
08
0E
0D
1;
1>
#2250000
1"
11
18
1=
1?
0G
0F
#2500000
0"
01
08
#2750000
1"
11
18
#3000000
0"
01
08
#3250000
1"
11
18
#3500000
0"
01
08
#3750000
1"
11
18
#4000000
0"
01
08
#4250000
1"
11
18
#4500000
0"
0#
01
03
0:
08
1D
0>
1@
#4750000
1"
11
18
0?
1A
0I
1G
16
14
1%
#5000000
0"
01
08
#5250000
1"
11
18
#5500000
0"
01
08
#5750000
1"
11
18
#6000000
0"
0!
01
02
09
08
1E
0;
0@
#6250000
1"
11
18
0=
0A
1I
1F
06
04
0%
#6500000
0"
01
08
#6750000
1"
11
18
#7000000
0"
01
08
#7250000
1"
11
18
#7500000
0"
0$
01
00
0<
08
#7750000
1"
11
18
#8000000
0"
1$
01
10
1<
08
#8250000
1"
11
18
#8500000
0"
01
08
#8750000
1"
11
18
#9000000
0"
1!
1#
01
12
13
1:
19
08
0E
0D
1;
1>
#9250000
1"
11
18
1=
1?
0G
0F
#9500000
0"
01
08
#9750000
1"
11
18
#10000000
0"
01
08
#10250000
1"
11
18
#10500000
0"
01
08
#10750000
1"
11
18
#11000000
0"
01
08
#11250000
1"
11
18
#11500000
0"
0!
01
02
09
08
1E
0>
1B
#11750000
1"
11
18
0?
1C
0H
1G
17
15
1&
#12000000
0"
01
08
#12250000
1"
11
18
#12500000
0"
01
08
#12750000
1"
11
18
#13000000
0"
01
08
#13250000
1"
11
18
#13500000
0"
01
08
#13750000
1"
11
18
#14000000
0"
0#
01
03
0:
08
1D
0;
0B
#14250000
1"
11
18
0=
0C
1H
1F
07
05
0&
#14500000
0"
01
08
#14750000
1"
11
18
#15000000
0"
01
08
#15250000
1"
11
18
#15500000
0"
0$
01
00
0<
08
#15750000
1"
11
18
#16000000
0"
1$
01
10
1<
08
#16250000
1"
11
18
#16500000
0"
01
08
#16750000
1"
11
18
#17000000
0"
01
08
#17250000
1"
11
18
#17500000
0"
1!
01
12
19
08
0E
#17750000
1"
11
18
#18000000
0"
01
08
#18250000
1"
11
18
#18500000
0"
01
08
#18750000
1"
11
18
#19000000
0"
01
08
#19250000
1"
11
18
#19500000
0"
1#
01
13
1:
08
0D
1;
1>
#19750000
1"
11
18
1=
1?
0G
0F
#20000000
0"
01
08
#20250000
1"
11
18
#20500000
0"
01
08
#20750000
1"
11
18
#21000000
0"
0#
01
03
0:
08
1D
0>
1@
#21250000
1"
11
18
0?
1A
0I
1G
16
14
1%
#21500000
0"
01
08
#21750000
1"
11
18
#22000000
0"
01
08
#22250000
1"
11
18
#22500000
0"
0!
01
02
09
08
1E
0;
0@
#22750000
1"
11
18
0=
0A
1I
1F
06
04
0%
#23000000
0"
01
08
#23250000
1"
11
18
#23500000
0"
01
08
#23750000
1"
11
18
#24000000
0"
0$
01
00
0<
08
#24250000
1"
11
18
#24500000
0"
1$
01
10
1<
08
#24750000
1"
11
18
#25000000
0"
01
08
#25250000
1"
11
18
#25500000
0"
1#
01
13
1:
08
0D
#25750000
1"
11
18
#26000000
0"
01
08
#26250000
1"
11
18
#26500000
0"
01
08
#26750000
1"
11
18
#27000000
0"
01
08
#27250000
1"
11
18
#27500000
0"
1!
01
12
19
08
0E
1;
1>
#27750000
1"
11
18
1=
1?
0G
0F
#28000000
0"
01
08
#28250000
1"
11
18
#28500000
0"
01
08
#28750000
1"
11
18
#29000000
0"
0!
01
02
09
08
1E
0>
1B
#29250000
1"
11
18
0?
1C
0H
1G
17
15
1&
#29500000
0"
01
08
#29750000
1"
11
18
#30000000
0"
01
08
#30250000
1"
11
18
#30500000
0"
01
08
#30750000
1"
11
18
#31000000
0"
01
08
#31250000
1"
11
18
#31500000
0"
0#
01
03
0:
08
1D
0;
0B
#31750000
1"
11
18
0=
0C
1H
1F
07
05
0&
#32000000
0"
01
08
#32250000
1"
11
18
#32500000
0"
01
08
#32750000
1"
11
18
#33000000
0"
01
08
#33250000
1"
11
18
#33500000
0"
1#
1!
01
13
12
19
1:
08
0D
0E
1;
1>
#33750000
1"
11
18
1=
1?
0G
0F
#34000000
0"
01
08
#34250000
1"
11
18
#34500000
0"
01
08
#34750000
1"
11
18
#35000000
0"
01
08
#35250000
1"
11
18
#35500000
0"
01
08
#35750000
1"
11
18
#36000000
0"
01
08
#36250000
1"
11
18
#36500000
0"
01
08
#36750000
1"
11
18
#37000000
0"
01
08
#37250000
1"
11
18
#37500000
0"
01
08
#37750000
1"
11
18
#38000000
0"
0!
01
02
09
08
1E
0>
1B
#38250000
1"
11
18
0?
1C
0H
1G
17
15
1&
#38500000
0"
01
08
#38750000
1"
11
18
#39000000
0"
01
08
#39250000
1"
11
18
#39500000
0"
01
08
#39750000
1"
11
18
#40000000
0"
01
08
#40250000
1"
11
18
#40500000
0"
01
08
#40750000
1"
11
18
#41000000
0"
0#
01
03
0:
08
1D
0;
0B
#41250000
1"
11
18
0=
0C
1H
1F
07
05
0&
#41500000
0"
01
08
#41750000
1"
11
18
#42000000
0"
1#
1!
01
13
12
19
1:
08
0D
0E
1;
1>
#42250000
1"
11
18
1=
1?
0G
0F
#42500000
0"
01
08
#42750000
1"
11
18
#43000000
0"
01
08
#43250000
1"
11
18
#43500000
0"
01
08
#43750000
1"
11
18
#44000000
0"
0#
01
03
0:
08
1D
0>
1@
#44250000
1"
11
18
0?
1A
0I
1G
16
14
1%
#44500000
0"
01
08
#44750000
1"
11
18
#45000000
0"
01
08
#45250000
1"
11
18
#45500000
0"
0!
01
02
09
08
1E
0;
0@
#45750000
1"
11
18
0=
0A
1I
1F
06
04
0%
#46000000
0"
01
08
#46250000
1"
11
18
#46500000
0"
0$
01
00
0<
08
#46750000
1"
11
18
#47000000
0"
1$
01
10
1<
08
#47250000
1"
11
18
#47500000
0"
1!
1#
01
12
13
1:
19
08
0E
0D
1;
1>
#47750000
1"
11
18
1=
1?
0G
0F
#48000000
0"
01
08
#48250000
1"
11
18
#48500000
0"
0#
01
03
0:
08
1D
0>
1@
#48750000
1"
11
18
0?
1A
0I
1G
16
14
1%
#49000000
0"
01
08
#49250000
1"
11
18
#49500000
0"
01
08
#49750000
1"
11
18
#50000000
0"
1#
01
13
1:
08
0D
#50250000
1"
11
18
#50500000
0"
01
08
#50750000
1"
11
18
#51000000
0"
0!
01
02
09
08
1E
#51250000
1"
11
18
#51500000
0"
01
08
#51750000
1"
11
18
#52000000
0"
0#
01
03
0:
08
1D
0;
0@
#52250000
1"
11
18
0=
0A
1I
1F
06
04
0%
#52500000
0"
01
08
#52750000
1"
11
18
#53000000
0"
01
08
#53250000
1"
11
18
#53500000
0"
1#
1!
01
13
12
19
1:
08
0D
0E
1;
1>
#53750000
1"
11
18
1=
1?
0G
0F
#54000000
0"
01
08
#54250000
1"
11
18
#54500000
0"
0#
01
03
0:
08
1D
0>
1@
#54750000
1"
11
18
0?
1A
0I
1G
16
14
1%
#55000000
0"
0!
01
02
09
08
1E
0;
0@
#55250000
1"
11
18
0=
0A
1I
1F
06
04
0%
#55500000
0"
0$
01
00
0<
08
#55750000
1"
11
18
#56000000
0"
1$
01
10
1<
08
#56250000
1"
11
18
#56500000
0"
01
08
#56750000
1"
11
18
#57000000
0"
1!
1#
01
12
13
1:
19
08
0E
0D
1;
1>
#57250000
1"
11
18
1=
1?
0G
0F
#57500000
0"
01
08
#57750000
1"
11
18
#58000000
0"
01
08
#58250000
1"
11
18
#58500000
0"
01
08
#58750000
1"
11
18
#59000000
0"
0!
0#
01
02
03
0:
09
08
1E
1D
0;
0>
#59250000
1"
11
18
0=
0?
1G
1F
#59500000
0"
01
08
#59750000
1"
11
18
#60000000
0"
1!
01
12
19
08
0E
#60250000
1"
11
18
#60500000
0"
0!
1#
01
02
13
1:
09
08
1E
0D
#60750000
1"
11
18
#61000000
0"
0#
01
03
0:
08
1D
#61250000
1"
11
18
#61500000
0"
1#
1!
01
13
12
19
1:
08
0D
0E
1;
1>
#61750000
1"
11
18
1=
1?
0G
0F
#62000000
0"
0#
01
03
0:
08
1D
0>
1@
#62250000
1"
11
18
0?
1A
0I
1G
16
14
1%
#62500000
0"
1#
0!
01
13
02
09
1:
08
0D
1E
#62750000
1"
11
18
#63000000
0"
0#
1!
01
03
12
19
0:
08
1D
0E
#63250000
1"
11
18
#63500000
0"
1#
01
13
1:
08
0D
#63750000
1"
11
18
#64000000
0"
0#
0!
01
03
02
09
0:
08
1D
1E
0;
0@
#64250000
1"
11
18
0=
0A
1I
1F
06
04
0%
#64500000
0"
1#
01
13
1:
08
0D
#64750000
1"
11
18
#65000000
0"
0#
1!
01
03
12
19
0:
08
1D
0E
#65250000
1"
11
18
#65500000
0"
0!
01
02
09
08
1E
#65750000
1"
11
18
#66000000
0"
1!
1#
01
12
13
1:
19
08
0E
0D
1;
1>
#66250000
1"
11
18
1=
1?
0G
0F
#66500000
0"
0!
0#
01
02
03
0:
09
08
1E
1D
0;
0>
#66750000
1"
11
18
0=
0?
1G
1F
#67000000
0"
1!
1#
01
12
13
1:
19
08
0E
0D
1;
1>
#67250000
1"
11
18
1=
1?
0G
0F
#67500000
0"
0#
01
03
0:
08
1D
0>
1@
#67750000
1"
11
18
0?
1A
0I
1G
16
14
1%
#68000000
0"
1#
01
13
1:
08
0D
#68250000
1"
11
18
#68500000
0"
0#
01
03
0:
08
1D
#68750000
1"
11
18
#69000000
0"
0!
01
02
09
08
1E
0;
0@
#69250000
1"
11
18
0=
0A
1I
1F
06
04
0%
#69500000
0"
01
08
#69750000
1"
11
18
#70000000
0"
0$
01
00
0<
08
#70250000
1"
11
18
#70500000
0"
1$
01
10
1<
08
#70750000
1"
11
18
#71000000
0"
1!
1#
01
12
13
1:
19
08
0E
0D
1;
1>
#71250000
1"
11
18
1=
1?
0G
0F
#71500000
0"
0!
01
02
09
08
1E
0>
1B
#71750000
1"
11
18
0?
1C
0H
1G
17
15
1&
#72000000
0"
0#
01
03
0:
08
1D
0;
0B
#72250000
1"
11
18
0=
0C
1H
1F
07
05
0&
#72500000
0"
01
08
#72750000
1"
11
18
#73000000
0"
1#
1!
01
13
12
19
1:
08
0D
0E
1;
1>
#73250000
1"
11
18
1=
1?
0G
0F
#73500000
0"
01
08
#73750000
1"
11
18
#74000000
0"
0!
01
02
09
08
1E
0>
1B
#74250000
1"
11
18
0?
1C
0H
1G
17
15
1&
#74500000
0"
1!
01
12
19
08
0E
#74750000
1"
11
18
#75000000
0"
0#
01
03
0:
08
1D
#75250000
1"
11
18
#75500000
0"
1#
0!
01
13
02
09
1:
08
0D
1E
#75750000
1"
11
18
#76000000
0"
1!
01
12
19
08
0E
#76250000
1"
11
18
#76500000
0"
0#
01
03
0:
08
1D
#76750000
1"
11
18
#77000000
0"
01
08
#77250000
1"
11
18
#77500000
0"
0!
01
02
09
08
1E
0;
0B
#77750000
1"
11
18
0=
0C
1H
1F
07
05
0&
#78000000
0"
01
08
#78250000
1"
11
18
#78500000
0"
01
08
#78750000
1"
11
18
#79000000
0"
01
08
#79250000
1"
11
18
#79500000
0"
01
08
#79750000
1"
11
18
#80000000
0"
0$
01
00
0<
08
#80250000
1"
11
18
#80500000
0"
1$
01
10
1<
08
#80750000
1"
11
18
#81000000
0"
01
08
#81250000
1"
11
18
#81500000
0"
01
08
#81750000
1"
11
18
#82000000
0"
01
08
#82250000
1"
11
18
#82500000
0"
01
08
#82750000
1"
11
18
#83000000
0"
1!
1#
01
12
13
1:
19
08
0E
0D
1;
1>
#83250000
1"
11
18
1=
1?
0G
0F
#83500000
0"
0!
01
02
09
08
1E
0>
1B
#83750000
1"
11
18
0?
1C
0H
1G
17
15
1&
#84000000
0"
1!
0#
01
12
03
0:
19
08
0E
1D
#84250000
1"
11
18
#84500000
0"
0!
1#
01
02
13
1:
09
08
1E
0D
#84750000
1"
11
18
#85000000
0"
0#
01
03
0:
08
1D
0;
0B
#85250000
1"
11
18
0=
0C
1H
1F
07
05
0&
#85500000
0"
01
08
#85750000
1"
11
18
#86000000
0"
01
08
#86250000
1"
11
18
#86500000
0"
01
08
#86750000
1"
11
18
#87000000
0"
1!
01
12
19
08
0E
#87250000
1"
11
18
#87500000
0"
01
08
#87750000
1"
11
18
#88000000
0"
0!
1#
01
02
13
1:
09
08
1E
0D
#88250000
1"
11
18
#88500000
0"
1!
0#
01
12
03
0:
19
08
0E
1D
#88750000
1"
11
18
#89000000
0"
0!
01
02
09
08
1E
#89250000
1"
11
18
#89500000
0"
1!
1#
01
12
13
1:
19
08
0E
0D
1;
1>
#89750000
1"
11
18
1=
1?
0G
0F
#90000000
0"
0#
01
03
0:
08
1D
0>
1@
#90250000
1"
11
18
0?
1A
0I
1G
16
14
1%
#90500000
0"
0!
01
02
09
08
1E
0;
0@
#90750000
1"
11
18
0=
0A
1I
1F
06
04
0%
#91000000
0"
1!
01
12
19
08
0E
#91250000
1"
11
18
#91500000
0"
1#
01
13
1:
08
0D
1;
1>
#91750000
1"
11
18
1=
1?
0G
0F
#92000000
0"
0#
01
03
0:
08
1D
0>
1@
#92250000
1"
11
18
0?
1A
0I
1G
16
14
1%
#92500000
0"
0!
01
02
09
08
1E
0;
0@
#92750000
1"
11
18
0=
0A
1I
1F
06
04
0%
#93000000
0"
1!
01
12
19
08
0E
#93250000
1"
11
18
#93500000
0"
0!
01
02
09
08
1E
#93750000
1"
11
18
#94000000
0"
1!
1#
01
12
13
1:
19
08
0E
0D
1;
1>
#94250000
1"
11
18
1=
1?
0G
0F
#94500000
0"
0!
0#
01
02
03
0:
09
08
1E
1D
0;
0>
#94750000
1"
11
18
0=
0?
1G
1F
#95000000
0"
01
08
#95250000
1"
11
18
#95500000
0"
1!
1#
01
12
13
1:
19
08
0E
0D
1;
1>
#95750000
1"
11
18
1=
1?
0G
0F
#96000000
0"
0#
01
03
0:
08
1D
0>
1@
#96250000
1"
11
18
0?
1A
0I
1G
16
14
1%
#96500000
0"
01
08
#96750000
1"
11
18
#97000000
0"
0!
01
02
09
08
1E
0;
0@
#97250000
1"
11
18
0=
0A
1I
1F
06
04
0%
#97500000
0"
1!
01
12
19
08
0E
#97750000
1"
11
18
#98000000
0"
0!
1#
01
02
13
1:
09
08
1E
0D
#98250000
1"
11
18
#98500000
0"
1!
01
12
19
08
0E
1;
1>
#98750000
1"
11
18
1=
1?
0G
0F
#99000000
0"
01
08
#99250000
1"
11
18
#99500000
0"
0#
01
03
0:
08
1D
0>
1@
#99750000
1"
11
18
0?
1A
0I
1G
16
14
1%
