LAB1/simulation/qsim/DogDaycare.msim.vcd
$comment
	File created using the following command:
		vcd file DogDaycare.msim.vcd -direction
$end
$date
	Thu Jan 20 13:14:53 2022
$end
$version
	ModelSim Version 10.5b
$end
$timescale
	1ps
$end

$scope module dogdaycare_vhd_vec_tst $end
$var wire 1 ! Alarm $end
$var wire 1 " B1 $end
$var wire 1 # B2 $end
$var wire 1 $ F1 $end
$var wire 1 % F2 $end
$var wire 1 & M $end
$var wire 1 ' Warning $end

$scope module i1 $end
$var wire 1 ( gnd $end
$var wire 1 ) vcc $end
$var wire 1 * unknown $end
$var wire 1 + devoe $end
$var wire 1 , devclrn $end
$var wire 1 - devpor $end
$var wire 1 . ww_devoe $end
$var wire 1 / ww_devclrn $end
$var wire 1 0 ww_devpor $end
$var wire 1 1 ww_Warning $end
$var wire 1 2 ww_M $end
$var wire 1 3 ww_F2 $end
$var wire 1 4 ww_B1 $end
$var wire 1 5 ww_F1 $end
$var wire 1 6 ww_B2 $end
$var wire 1 7 ww_Alarm $end
$var wire 1 8 \Warning~output_o\ $end
$var wire 1 9 \Alarm~output_o\ $end
$var wire 1 : \M~input_o\ $end
$var wire 1 ; \F2~input_o\ $end
$var wire 1 < \B1~input_o\ $end
$var wire 1 = \F1~input_o\ $end
$var wire 1 > \B2~input_o\ $end
$var wire 1 ? \inst14~0_combout\ $end
$var wire 1 @ \inst15~0_combout\ $end
$var wire 1 A \ALT_INV_B2~input_o\ $end
$var wire 1 B \ALT_INV_F1~input_o\ $end
$var wire 1 C \ALT_INV_B1~input_o\ $end
$var wire 1 D \ALT_INV_F2~input_o\ $end
$var wire 1 E \ALT_INV_M~input_o\ $end
$upscope $end
$upscope $end
$enddefinitions $end
#0
$dumpvars
0!
0"
0#
0$
0%
0&
0'
0(
1)
x*
1+
1,
1-
1.
1/
10
01
02
03
04
05
06
07
08
09
0:
0;
0<
0=
0>
0?
0@
1A
1B
1C
1D
1E
$end
#50000
1%
13
1;
0D
#100000
0%
1$
03
15
1=
0;
1D
0B
#150000
1%
13
1;
0D
#200000
0%
0$
1#
03
05
16
1>
0=
0;
1D
1B
0A
#250000
1%
13
1;
0D
1@
19
17
1!
#300000
0%
1$
03
15
1=
0;
1D
0B
1?
0@
09
18
07
11
0!
1'
#350000
1%
13
1;
0D
1@
19
17
1!
#400000
0%
0$
0#
1"
03
05
06
14
1<
0>
0=
0;
1D
1B
1A
0C
0?
0@
09
08
07
01
0!
0'
#450000
1%
13
1;
0D
1?
18
11
1'
#500000
0%
1$
03
15
1=
0;
1D
0B
0?
1@
19
08
17
01
1!
0'
#550000
1%
13
1;
0D
1?
18
11
1'
#600000
0%
0$
1#
03
05
16
1>
0=
0;
1D
1B
0A
0?
0@
09
08
07
01
0!
0'
#650000
1%
13
1;
0D
1?
1@
19
18
17
11
1!
1'
#700000
0%
1$
03
15
1=
0;
1D
0B
#750000
1%
13
1;
0D
#800000
0%
0$
0#
0"
1&
03
05
06
04
12
1:
0<
0>
0=
0;
1D
1B
1A
1C
0E
0?
0@
09
08
07
01
0!
0'
#850000
1%
13
1;
0D
#900000
0%
1$
03
15
1=
0;
1D
0B
#950000
1%
13
1;
0D
#1000000
0%
0$
1#
03
05
16
1>
0=
0;
1D
1B
0A
#1050000
1%
13
1;
0D
1@
19
17
1!
#1100000
0%
1$
03
15
1=
0;
1D
0B
#1150000
1%
13
1;
0D
#1200000
0%
0$
0#
1"
03
05
06
14
1<
0>
0=
0;
1D
1B
1A
0C
0@
09
07
0!
#1250000
1%
13
1;
0D
1@
19
17
1!
#1300000
0%
1$
03
15
1=
0;
1D
0B
#1350000
1%
13
1;
0D
#1400000
0%
0$
1#
03
05
16
1>
0=
0;
1D
1B
0A
0@
09
07
0!
#1450000
1%
13
1;
0D
1@
19
17
1!
#1500000
0%
1$
03
15
1=
0;
1D
0B
#1550000
1%
13
1;
0D
