LAB4/simulation/qsim/StateMachineSchematic.msim.vcd
$comment
	File created using the following command:
		vcd file StateMachineSchematic.msim.vcd -direction
$end
$date
	Thu Feb 10 13:57:02 2022
$end
$version
	ModelSim Version 10.5b
$end
$timescale
	1ps
$end

$scope module StateMachineSchematic_vlg_vec_tst $end
$var reg 1 ! C $end
$var reg 1 " clk $end
$var reg 1 # reset $end
$var reg 1 $ Xmas $end
$var wire 1 % blue $end
$var wire 1 & green $end
$var wire 1 ' Q [1] $end
$var wire 1 ( Q [0] $end
$var wire 1 ) red $end

$scope module i1 $end
$var wire 1 * gnd $end
$var wire 1 + vcc $end
$var wire 1 , unknown $end
$var tri1 1 - devclrn $end
$var tri1 1 . devpor $end
$var tri1 1 / devoe $end
$var wire 1 0 red~output_o $end
$var wire 1 1 green~output_o $end
$var wire 1 2 blue~output_o $end
$var wire 1 3 Q[1]~output_o $end
$var wire 1 4 Q[0]~output_o $end
$var wire 1 5 clk~input_o $end
$var wire 1 6 inst5|10~0_combout $end
$var wire 1 7 reset~input_o $end
$var wire 1 8 inst5|10~q $end
$var wire 1 9 C~input_o $end
$var wire 1 : Xmas~input_o $end
$var wire 1 ; inst3~0_combout $end
$var wire 1 < inst5|9~q $end
$var wire 1 = inst10~combout $end
$upscope $end
$upscope $end
$enddefinitions $end
#0
$dumpvars
0!
0"
0#
0$
0%
0&
0(
0'
1)
0*
1+
x,
1-
1.
1/
10
01
02
03
04
05
16
07
08
09
0:
0;
0<
0=
$end
#20000
1#
17
#25000
1"
15
18
11
14
1=
1(
1&
1;
00
0)
06
#50000
0"
05
#75000
1"
15
1<
08
01
04
12
13
1'
1%
0(
0&
0;
#100000
0"
05
#125000
1"
15
0<
02
03
0=
0'
0%
10
1)
16
#150000
0"
05
#175000
1"
15
18
11
14
1=
1(
1&
1;
00
0)
06
#200000
0"
05
#225000
1"
15
1<
08
01
04
12
13
1'
1%
0(
0&
0;
#250000
0"
05
#275000
1"
15
0<
02
03
0=
0'
0%
10
1)
16
#300000
0"
05
#325000
1"
15
18
11
14
1=
1(
1&
1;
00
0)
06
#350000
0"
05
#360000
1!
19
#375000
1"
15
1<
08
01
04
12
13
1'
1%
0(
0&
#400000
0"
05
#425000
1"
15
#450000
0"
05
#475000
1"
15
#500000
0"
05
#525000
1"
15
#540000
0!
09
0;
#550000
1$
0"
1:
05
#575000
1"
15
0<
02
03
0=
0'
0%
10
1)
16
#600000
0"
05
#625000
1"
15
18
11
14
1=
1(
1&
00
0)
06
#650000
0"
05
#675000
1"
15
08
01
04
0=
0(
0&
10
1)
16
#700000
0$
0"
0:
05
#725000
1"
15
18
11
14
1=
1(
1&
1;
00
0)
06
#750000
0"
05
#775000
1"
15
1<
08
01
04
12
13
1'
1%
0(
0&
0;
#800000
0"
05
#825000
1"
15
0<
02
03
0=
0'
0%
10
1)
16
#830000
1!
1$
19
1:
#850000
0"
05
#875000
1"
15
18
11
14
1=
1(
1&
1;
00
0)
06
#900000
0"
05
#925000
1"
15
1<
08
01
04
12
13
1'
1%
0(
0&
#950000
0"
05
#975000
1"
15
#990000
0!
0$
09
0:
0;
